module rest-microservice

go 1.13

require (
	github.com/DATA-DOG/go-sqlmock v1.3.3
	github.com/go-sql-driver/mysql v1.4.1
	github.com/golang/protobuf v1.3.5
	github.com/grpc-ecosystem/grpc-gateway v1.12.1
	github.com/joho/godotenv v1.3.0
	golang.org/x/net v0.0.0-20200324143707-d3edc9973b7e // indirect
	golang.org/x/sys v0.0.0-20200331124033-c3d80250170d // indirect
	golang.org/x/text v0.3.2 // indirect
	google.golang.org/genproto v0.0.0-20200401122417-09ab7b7031d2
	google.golang.org/grpc v1.28.0
	gopkg.in/yaml.v2 v2.2.7 // indirect
)
